census-api-user-2025 – Accessing Census Data in R through APIs
…
Looking at 5-year ACS data

library(tidycensus)
library(sf)
findvars_tidy <- load_variables(year = year_select, dataset = "acs5")

Find variables

Looking at 5-year ACS data

findvars_tidy %>%
  arrange(name) %>%
  filter(str_detect(str_to_lower(concept), "occupancy"))

# A tibble: 30 × 4
   name       label                                            concept geography
   <chr>      <chr>                                            <chr>   <chr>    
 1 B25002_001 Estimate!!Total:                                 Occupa… block gr…
 2 B25002_002 Estimate!!Total:!!Occupied                       Occupa… block gr…
 3 B25002_003 Estimate!!Total:!!Vacant                         Occupa… block gr…
 4 B25136_001 Estimate!!Total Housing Units:                   Struct… block gr…
 5 B25136_002 Estimate!!Total Housing Units:!!Occupied Units   Struct… block gr…
 6 B25136_003 Estimate!!Total Housing Units:!!Occupied Units!… Struct… block gr…
 7 B25136_004 Estimate!!Total Housing Units:!!Occupied Units!… Struct… block gr…
 8 B25136_005 Estimate!!Total Housing Units:!!Occupied Units!… Struct… block gr…
 9 B25136_006 Estimate!!Total Housing Units:!!Occupied Units!… Struct… block gr…
10 B25136_007 Estimate!!Total Housing Units:!!Occupied Units!… Struct… block gr…
# ℹ 20 more rows
…
Identify variables of interest (pums_variables)

Use get_pums() to query data

Warning - this data can be large!!!

Identify variables

pums_vars_2023 <-
  pums_variables %>%
  filter(year == year_select, survey == "acs5")

pums_vars_2023 %>% print(n = 6)

# A tibble: 5,434 × 12
  survey year  var_code var_label      data_type level val_min val_max val_label
  <chr>  <chr> <chr>    <chr>          <chr>     <chr> <chr>   <chr>   <chr>    
1 acs5   2023  SERIALNO Housing unit/… chr       <NA>  2019GQ… 2023GQ… GQ Uniqu…
2 acs5   2023  SERIALNO Housing unit/… chr       <NA>  2019HU… 2023HU… HU Uniqu…
3 acs5   2023  DIVISION Division code  chr       <NA>  0       0       Puerto R…
4 acs5   2023  DIVISION Division code  chr       <NA>  1       1       New Engl…
5 acs5   2023  DIVISION Division code  chr       <NA>  2       2       Middle A…
6 acs5   2023  DIVISION Division code  chr       <NA>  3       3       East Nor…
# ℹ 5,428 more rows
# ℹ 3 more variables: recode <lgl>, val_length <int>, val_na <dbl>
…
